Programming with R
…
[1] 97

The variable ‘age’ ranges from 18 to 97 where the minimum age is 18 and the maximum age is 97.

#Group the data by age
#Summarise the grouped variable to see the proportions of respondents who voted "leave"
#Assign the df to a new object
brexit_grp_age = dat_brexit %>% group_by(age)  %>%
                    summarise(leave = mean(leave),
                              .groups = 'drop')

brexit_grp_age

# A tibble: 76 x 2
     age leave
   <int> <dbl>
 1    18 0.222
 2    19 0.237
 3    20 0.195
 4    21 0.198
 5    22 0.213
 6    23 0.231
 7    24 0.214
 8    25 0.271
 9    26 0.242
10    27 0.317
# ... with 66 more rows
…
